{
    "extends": ["tslint-config-airbnb", "tslint:latest", "tslint-config-prettier", "tslint-immutable"],
    "rules": {
        "trailing-comma": false,
        "interface-name": [true, "always-prefix"],
        "max-line-length": false,
        "prefer-const": true,
        "no-angle-bracket-type-assertion": false,
        "no-object-literal-type-assertion": false,
        "object-literal-sort-keys": [true, "shorthand-first"],
        "object-shorthand-properties-first": false,
        "function-name": [true, {
            "method-regex": "^_?[a-z][\\w\\d]+$",
            "private-method-regex": "^_?[a-z][\\w\\d]+$",
            "protected-method-regex": "^_?[a-z][\\w\\d]+$",
            "static-method-regex": "^_?[a-zA-Z_\\d]+$",
            "function-regex": "^_?[a-z][\\w\\d]+$"
        }],

        "variable-name": [true, "ban-keywords", "check-format", "allow-leading-underscore"],

        "no-submodule-imports": [true, "@stencil"],

        "member-ordering": [
            true,
            {
                "order": [
                    {
                        "name": "instance fields",
                        "kinds": [
                            "public-instance-field",
                            "protected-instance-field",
                            "private-instance-field"
                        ]
                    },
                    {
                        "name": "static",
                        "kinds": [
                            "public-static-field",
                            "protected-static-field",
                            "private-static-field",
                            "public-static-method",
                            "protected-static-method",
                            "private-static-method"
                        ]
                    },
                    "constructor",
                    {
                        "name": "instance methods",
                        "kinds": [
                            "public-instance-method",
                            "protected-instance-method",
                            "private-instance-method"
                        ]
                    }
                ]
            }
        ],

        // TODO: allow devDependencies only in **/*.spec.ts files:
        // waiting on https://github.com/palantir/tslint/pull/3708
        "no-implicit-dependencies": [true, "dev"],

        /* tslint-immutable rules */
        "quotemark": [true, "single", "avoid-escape"],

        // Recommended built-in rules
        "no-var-keyword": true,
        "typedef": [true, "call-signature"],

        // Immutability rules
        "no-method-signature": true,

        // Functional style rules
        "no-this-assignment": [true, { "allow-destructuring": true }],
        "no-mixed-interface": true
        /* end tslint-immutable rules */
    }
}
